"className","NoKey","maxInDoc","totalInDoc","maxInAllClasses","maxInSpecClasses","totalInAllClasses","totalInSpecClasses","weightInAllClasses","weightInSpecClasses","NumAttr","NumOps","NumPubOps","Setters","Getters","Dep_Out","Dep_In","EC_Attr","IC_Attr","EC_Par","IC_Par","In_Design"
"EA_Model.Model.Class_Model.gui.PaintPanel","2","9","11","205","0","207","0","103.5","0.0","1","3","3","1","1","0","0","1","1","2","2","Y"
"EA_Model.Model.Class_Model.models.AutoCompleteComboBoxModel","5","9","19","194","1","241","1","48.2","0.2","3","7","7","2","3","0","0","0","0","0","0","N"
"EA_Model.Model.Class_Model.models.FA","1","0","0","0","0","0","0","0.0","0.0","10","28","27","8","9","0","0","4","1","16","16","Y"
"EA_Model.Model.Class_Model.models.FAEditor","2","6","6","30","0","30","0","15.0","0.0","25","63","45","15","18","0","0","2","7","4","21","Y"
"EA_Model.Model.Class_Model.models.FATransitionTableColumnModel","5","9","21","194","0","333","0","66.6","0.0","0","19","19","3","11","0","0","0","0","0","0","Y"
"EA_Model.Model.Class_Model.models.FATransitionTableModel","4","9","18","194","0","284","0","71.0","0.0","2","6","5","2","4","0","0","0","1","0","1","Y"
"EA_Model.Model.Class_Model.models.NoSuchTransitionException","4","3","6","10","0","13","0","3.25","0.0","0","2","2","0","0","0","0","0","0","0","0","N"
"EA_Model.Model.Class_Model.models.SquareState","2","5","7","92","0","94","0","47.0","0.0","2","5","5","2","2","0","0","0","1","0","4","Y"
"EA_Model.Model.Class_Model.models.State","1","5","5","92","0","92","0","92.0","0.0","9","26","23","5","12","0","0","12","1","39","17","Y"
"EA_Model.Model.Class_Model.models.State_Properties","2","7","12","92","0","140","0","70.0","0.0","7","14","14","6","6","0","0","1","0","1","0","Y"
"EA_Model.Model.Class_Model.models.TouchButton","2","7","7","33","0","33","0","16.5","0.0","13","23","23","9","13","0","0","1","1","2","2","N"
"EA_Model.Model.Class_Model.models.Transition","1","3","3","10","0","10","0","10.0","0.0","14","28","26","13","13","0","0","5","1","34","6","Y"
"EA_Model.Model.Class_Model.System.Class1","1","5","5","143","0","143","0","143.0","0.0","0","0","0","0","0","0","0","0","0","0","0","N"
"EA_Model.Model.Class_Model.System.Class2","1","5","5","143","0","143","0","143.0","0.0","0","0","0","0","0","0","0","0","0","0","0","N"
"EA_Model.Model.Class_Model.System.Class3","1","5","5","143","0","143","0","143.0","0.0","0","0","0","0","0","0","0","0","0","0","0","N"
