"className","NoKey","maxInDoc","totalInDoc","maxInAllClasses","maxInSpecClasses","totalInAllClasses","totalInSpecClasses","weightInAllClasses","weightInSpecClasses","NumAttr","NumOps","NumPubOps","Setters","Getters","Dep_Out","Dep_In","EC_Attr","IC_Attr","EC_Par","IC_Par","In_Design"
"EA_Model.Model.Class_Model.$help://class_model_pattern.htm","1","1","1","2","0","2","0","2.0","0.0","0","0","0","0","0","0","0","0","0","0","0","N"
"EA_Model.Model.Class_Model.$help://classdiagram.htm","1","1","1","2","0","2","0","2.0","0.0","0","0","0","0","0","0","0","0","0","0","0","N"
"EA_Model.Model.Class_Model.controller.FAPainter","2","1","1","3","0","3","0","1.5","0.0","33","32","17","3","8","0","0","2","3","4","12","N"
"EA_Model.Model.Class_Model.controller.FASimulator","2","4","4","21","0","21","0","10.5","0.0","9","34","25","5","12","0","0","5","4","8","14","Y"
"EA_Model.Model.Class_Model.controller.IncompleteAutomatonException","3","2","5","5","0","8","0","2.6666666666666665","0.0","0","2","2","0","0","0","0","0","0","0","0","N"
"EA_Model.Model.Class_Model.fasimulator.Main","1","7","7","21","1","21","1","21.0","1.0","0","1","1","0","0","0","0","0","0","0","0","N"
"EA_Model.Model.Class_Model.gui.FAAutoCompleteWin","4","2","4","5","0","7","0","1.75","0.0","11","19","7","2","4","0","0","0","2","0","4","N"
"EA_Model.Model.Class_Model.gui.FAAutoCreateAbsorbedState","5","5","11","92","0","111","0","22.2","0.0","11","19","7","2","4","0","0","0","2","0","4","N"
"EA_Model.Model.Class_Model.gui.FAInfoWin","3","7","8","60","2","61","2","20.333333333333332","0.6666666666666666","18","7","3","0","0","0","0","0","0","0","0","Y"
"EA_Model.Model.Class_Model.gui.FAMainWin","3","7","8","21","1","22","1","7.333333333333333","0.3333333333333333","82","83","18","4","3","0","0","7","2","14","7","Y"
"EA_Model.Model.Class_Model.gui.FAPropertiesWin","3","7","8","48","0","49","0","16.333333333333332","0.0","21","14","7","2","3","0","0","0","2","0","4","N"
"EA_Model.Model.Class_Model.gui.FAStatePropertiesWin","4","7","13","92","0","141","0","35.25","0.0","11","21","9","3","3","0","0","0","2","0","4","N"
"EA_Model.Model.Class_Model.gui.FATransitionWin","3","3","4","10","0","11","0","3.6666666666666665","0.0","11","20","9","3","4","0","0","0","2","0","4","N"
"EA_Model.Model.Class_Model.gui.FAWelcomeWin","3","1","1","1","0","1","0","0.3333333333333333","0.0","18","14","6","1","1","0","0","0","1","0","2","N"
"EA_Model.Model.Class_Model.gui.HelpFileLoader","3","5","11","32","0","46","0","15.333333333333334","0.0","1","4","3","0","1","0","0","1","0","0","0","N"
