Name,NumOps,EC_Attr,EC_Par,IC_Par,Assoc,NumDirClients,NumIndClients,NumAnc,NumDesc,Diags
EA Model.Class Model.ui.ResultOfFindBorrower,1,1,0,1,1,0,0,0,0,1
EA Model.Class Model.ui.ResultOfFindTitle,1,1,0,1,1,0,0,0,0,1
