Name,EA Model.Class Model.bo,EA Model.Class Model.db,EA Model.Class Model.ui,EA Model.Class Model.util,EA Model.Class Model
EA Model.Class Model.bo,0,1,0,1,0
EA Model.Class Model.db,0,0,0,1,0
EA Model.Class Model.ui,1,0,0,1,0
EA Model.Class Model.util,0,0,0,0,0
EA Model.Class Model,0,0,0,0,0
