inst#,actual,predicted,error,prediction
1,1:N,1:N,,1
2,2:Y,1:N,+,1
3,1:N,2:Y,+,1
4,1:N,2:Y,+,1
5,1:N,1:N,,1
6,1:N,1:N,,1
7,2:Y,1:N,+,1
8,1:N,1:N,,1
9,1:N,2:Y,+,1
10,1:N,1:N,,1
11,2:Y,2:Y,,1
12,1:N,2:Y,+,1
13,2:Y,1:N,+,1
14,2:Y,1:N,+,1
15,2:Y,1:N,+,1

