inst#,actual,predicted,error,prediction
1,1:Y,1:Y,,0.9
2,1:Y,1:Y,,0.9
3,2:N,2:N,,1
4,2:N,2:N,,1
5,2:N,2:N,,1
6,2:N,2:N,,1
7,2:N,2:N,,1
8,1:Y,1:Y,,0.7
9,2:N,2:N,,0.9
10,2:N,2:N,,0.9
11,2:N,2:N,,1
12,2:N,2:N,,1
13,2:N,2:N,,1
14,2:N,2:N,,1
15,2:N,2:N,,0.8
16,2:N,2:N,,0.7
17,1:Y,1:Y,,1
18,1:Y,1:Y,,0.5
19,1:Y,1:Y,,0.5
20,1:Y,1:Y,,1
21,1:Y,1:Y,,1
22,1:Y,1:Y,,1
23,2:N,2:N,,1
24,2:N,2:N,,1
25,2:N,2:N,,0.9
26,1:Y,1:Y,,1
27,1:Y,1:Y,,1
28,2:N,2:N,,1
29,1:Y,1:Y,,1

