inst#,actual,predicted,error,prediction
1,1:Y,2:N,+,1
2,1:Y,2:N,+,1
3,1:Y,1:Y,,1
4,2:N,1:Y,+,1
5,1:Y,2:N,+,1
6,1:Y,2:N,+,1
7,1:Y,1:Y,,0.963
8,1:Y,1:Y,,0.727
9,2:N,2:N,,1
10,2:N,1:Y,+,1
11,1:Y,1:Y,,0.992
12,1:Y,1:Y,,0.974
13,1:Y,1:Y,,0.935
14,1:Y,2:N,+,0.902
15,1:Y,2:N,+,1

