untitled.models.FATransitionTableModel,4,9,18,194,0,284,0,71.0,0.0,2,5,4,1,4,0,0,0,1,0,1,Y,Y,1
untitled.models.State_Properties,2,7,12,92,0,140,0,70.0,0.0,7,10,10,3,5,0,0,1,1,1,2,Y,Y,1
untitled.models.FATransitionTableColumnModel,5,9,21,194,0,333,0,66.6,0.0,0,19,19,3,11,0,0,0,0,0,0,Y,Y,1
untitled.models.Transition,1,3,3,10,0,10,0,10.0,0.0,14,12,10,3,7,0,0,8,3,27,6,Y,Y,1
untitled.models.FA,1,0,0,0,0,0,0,0.0,0.0,10,18,17,3,4,0,0,4,4,16,14,Y,Y,1
untitled.models.State,1,5,5,92,0,92,0,92.0,0.0,9,18,15,2,7,0,0,15,3,29,17,Y,Y,1
untitled.models.FAEditor,2,6,6,30,0,30,0,15.0,0.0,25,43,25,4,9,0,0,2,14,1,17,Y,Y,1
untitled.controller.FASimulator,2,4,4,21,0,21,0,10.5,0.0,9,27,18,1,9,0,0,5,6,4,11,Y,Y,0.9
untitled.controller.FAPainter,2,1,1,3,0,3,0,1.5,0.0,33,26,11,0,5,0,0,2,3,4,8,Y,Y,0.9
untitled.gui.FAMainWin,3,7,8,21,1,22,1,7.333333333333333,0.3333333333333333,82,83,18,4,3,0,0,7,3,14,7,Y,Y,0.7
untitled.models.FAEditor.EditorTransitionStates,3,6,14,92,0,132,0,44.0,0.0,0,0,0,0,0,0,0,1,0,0,0,Y,Y,0.5
untitled.models.FAEditor.EditorSelectionStates,3,6,15,92,0,146,0,48.666666666666664,0.0,0,0,0,0,0,0,0,1,0,0,0,Y,Y,0.5
untitled.models.EditorToolStates,3,6,17,92,0,141,0,47.0,0.0,0,0,0,0,0,0,0,1,0,0,0,N,N,0.30000000000000004
untitled.models.AutoCompleteComboBoxModel,5,9,19,194,1,241,1,48.2,0.2,3,6,6,1,3,0,0,0,0,0,0,N,N,0.19999999999999996
untitled.models.SquareState,2,5,7,92,0,94,0,47.0,0.0,2,1,1,0,0,0,0,0,2,0,0,N,N,0.09999999999999998
untitled.gui.FAStatePropertiesWin,4,7,13,92,0,141,0,35.25,0.0,11,19,7,1,3,0,0,0,2,0,3,N,N,0.09999999999999998
untitled.gui.FAPropertiesWin,3,7,8,48,0,49,0,16.333333333333332,0.0,21,14,7,2,3,0,0,0,2,0,4,N,N,0.09999999999999998
untitled.gui.FAInfoWin,3,7,8,60,2,61,2,20.333333333333332,0.6666666666666666,18,7,3,0,0,0,0,0,0,0,0,N,N,0.0
untitled.fasimulator.Main,1,7,7,21,1,21,1,21.0,1.0,0,1,1,0,0,0,0,0,0,0,0,N,N,0.0
untitled.models.NoSuchTransitionException,4,3,6,10,0,13,0,3.25,0.0,0,2,2,0,0,0,0,0,0,0,0,N,N,0.0
untitled.controller.IncompleteAutomatonException,3,2,5,5,0,8,0,2.6666666666666665,0.0,0,2,2,0,0,0,0,0,0,0,0,N,N,0.0
untitled.models.HighlightTypes,2,7,8,199,0,201,0,100.5,0.0,0,0,0,0,0,0,0,2,0,4,0,N,N,0.0
untitled.gui.HelpFileLoader,3,5,11,32,0,46,0,15.333333333333334,0.0,1,4,3,0,1,0,0,1,0,0,0,N,N,0.0
untitled.gui.PaintPanel,2,9,11,205,0,207,0,103.5,0.0,1,3,3,1,1,0,0,2,1,0,2,N,N,0.0
untitled.models.TouchButton,2,7,7,33,0,33,0,16.5,0.0,13,4,4,0,3,0,0,1,1,0,0,N,N,0.0
untitled.gui.FAAutoCreateAbsorbedState,5,5,11,92,0,111,0,22.2,0.0,11,17,5,1,3,0,0,0,2,0,2,N,N,0.0
untitled.gui.FAAutoCompleteWin,4,2,4,5,0,7,0,1.75,0.0,11,17,5,1,3,0,0,0,2,0,2,N,N,0.0
untitled.gui.FATransitionWin,3,3,4,10,0,11,0,3.6666666666666665,0.0,11,17,6,1,3,0,0,0,2,0,2,N,N,0.0
untitled.gui.FAWelcomeWin,3,1,1,1,0,1,0,0.3333333333333333,0.0,18,14,6,1,1,0,0,0,1,0,2,N,N,0.0
